{"name":"Send information list get users with response success","id":"information-list-get-users;send-information-list-get-users-with-response-success","testSteps":[{"number":1,"description":"Given Load customer information\r\n| page |\r\n| 1 |","duration":175,"startTime":"2025-04-12T18:58:46.721259900-05:00[America/Bogota]","result":"SUCCESS","precondition":false,"level":0,"children":[{"number":2,"description":"Reqres load","duration":3,"startTime":"2025-04-12T18:58:46.886817400-05:00[America/Bogota]","result":"SUCCESS","precondition":false,"level":1}]},{"number":3,"description":"When Call Get user API","duration":2586,"startTime":"2025-04-12T18:58:46.898414200-05:00[America/Bogota]","result":"SUCCESS","precondition":false,"level":0,"children":[{"number":4,"description":"Reqres consume get","duration":2576,"startTime":"2025-04-12T18:58:46.906088200-05:00[America/Bogota]","result":"SUCCESS","precondition":false,"level":1,"children":[{"number":5,"description":"Reqres execute get","duration":2567,"startTime":"2025-04-12T18:58:46.915386100-05:00[America/Bogota]","result":"SUCCESS","precondition":false,"level":2,"children":[{"number":6,"description":"Reqres executes a GET on the resource /api/users","duration":2169,"startTime":"2025-04-12T18:58:47.311575900-05:00[America/Bogota]","result":"SUCCESS","precondition":false,"level":3,"children":[{"number":7,"description":"GET https://reqres.in/api/users?page\u003d1\r","duration":0,"startTime":"2025-04-12T18:58:49.481060900-05:00[America/Bogota]","result":"SUCCESS","restQuery":{"method":"GET","path":"https://reqres.in/api/users?page\u003d1\r","content":"\r","contentType":"application/json","requestHeaders":"Accept\u003d*/*\r\n\t\t\t\tContent-Type\u003dapplication/json; charset\u003dUTF-8\r","requestCookies":"\r","responseHeaders":"Date: Sat, 12 Apr 2025 23:58:48 GMT\r\nContent-Type: application/json; charset\u003dutf-8\r\nTransfer-Encoding: chunked\r\nConnection: keep-alive\r\nReport-To: {\"group\":\"heroku-nel\",\"max_age\":3600,\"endpoints\":[{\"url\":\"https://nel.heroku.com/reports?ts\u003d1744324260\u0026sid\u003dc4c9725f-1ab0-44d8-820f-430df2718e11\u0026s\u003dwzl%2FUbaDc%2B0pKX4tXEpCrjbVoGkMeEmrRWOrSiaaPPU%3D\"}]}\r\nReporting-Endpoints: heroku-nel\u003dhttps://nel.heroku.com/reports?ts\u003d1744324260\u0026sid\u003dc4c9725f-1ab0-44d8-820f-430df2718e11\u0026s\u003dwzl%2FUbaDc%2B0pKX4tXEpCrjbVoGkMeEmrRWOrSiaaPPU%3D\r\nNel: {\"report_to\":\"heroku-nel\",\"max_age\":3600,\"success_fraction\":0.005,\"failure_fraction\":0.05,\"response_headers\":[\"Via\"]}\r\nX-Powered-By: Express\r\nAccess-Control-Allow-Origin: *\r\nEtag: W/\"41e-bY3U72nulxuwNd/TmihMEHjLmek\"\r\nVia: 1.1 vegur\r\nCache-Control: max-age\u003d14400\r\nCF-Cache-Status: HIT\r\nAge: 3972\r\nVary: Accept-Encoding\r\nServer: cloudflare\r\nCF-RAY: 92f6ac819d256db9-MIA\r\nContent-Encoding: gzip\r\nserver-timing: cfL4;desc\u003d\"?proto\u003dTCP\u0026rtt\u003d177099\u0026min_rtt\u003d171442\u0026rtt_var\u003d75606\u0026sent\u003d6\u0026recv\u003d6\u0026lost\u003d0\u0026retrans\u003d0\u0026sent_bytes\u003d3111\u0026recv_bytes\u003d722\u0026delivery_rate\u003d20211\u0026cwnd\u003d191\u0026unsent_bytes\u003d0\u0026cid\u003d7aabf8979fab74c0\u0026ts\u003d405\u0026x\u003d0\"\r","responseCookies":"\r","responseBody":"{\n    \"page\": 1,\n    \"per_page\": 6,\n    \"total\": 12,\n    \"total_pages\": 2,\n    \"data\": [\n        {\n            \"id\": 1,\n            \"email\": \"george.bluth@reqres.in\",\n            \"first_name\": \"George\",\n            \"last_name\": \"Bluth\",\n            \"avatar\": \"https://reqres.in/img/faces/1-image.jpg\"\n        },\n        {\n            \"id\": 2,\n            \"email\": \"janet.weaver@reqres.in\",\n            \"first_name\": \"Janet\",\n            \"last_name\": \"Weaver\",\n            \"avatar\": \"https://reqres.in/img/faces/2-image.jpg\"\n        },\n        {\n            \"id\": 3,\n            \"email\": \"emma.wong@reqres.in\",\n            \"first_name\": \"Emma\",\n            \"last_name\": \"Wong\",\n            \"avatar\": \"https://reqres.in/img/faces/3-image.jpg\"\n        },\n        {\n            \"id\": 4,\n            \"email\": \"eve.holt@reqres.in\",\n            \"first_name\": \"Eve\",\n            \"last_name\": \"Holt\",\n            \"avatar\": \"https://reqres.in/img/faces/4-image.jpg\"\n        },\n        {\n            \"id\": 5,\n            \"email\": \"charles.morris@reqres.in\",\n            \"first_name\": \"Charles\",\n            \"last_name\": \"Morris\",\n            \"avatar\": \"https://reqres.in/img/faces/5-image.jpg\"\n        },\n        {\n            \"id\": 6,\n            \"email\": \"tracey.ramos@reqres.in\",\n            \"first_name\": \"Tracey\",\n            \"last_name\": \"Ramos\",\n            \"avatar\": \"https://reqres.in/img/faces/6-image.jpg\"\n        }\n    ],\n    \"support\": {\n        \"url\": \"https://contentcaddy.io?utm_source\u003dreqres\u0026utm_medium\u003djson\u0026utm_campaign\u003dreferral\",\n        \"text\": \"Tired of writing endless social media content? Let Content Caddy generate it for you.\"\n    }\n}","statusCode":200},"precondition":false,"level":4}]}]}]}]},{"number":8,"description":"Then Should see the code 200","duration":103,"startTime":"2025-04-12T18:58:49.485963500-05:00[America/Bogota]","result":"SUCCESS","precondition":false,"level":0,"children":[{"number":9,"description":"Then status code","duration":27,"startTime":"2025-04-12T18:58:49.560419500-05:00[America/Bogota]","result":"SUCCESS","precondition":false,"level":1,"children":[{"number":10,"description":"Service API response status code","duration":24,"startTime":"2025-04-12T18:58:49.561928600-05:00[America/Bogota]","result":"SUCCESS","precondition":false,"level":2}]}]},{"number":11,"description":"And Validate quantity key is 6","duration":346,"startTime":"2025-04-12T18:58:49.590661200-05:00[America/Bogota]","result":"SUCCESS","precondition":false,"level":0,"children":[{"number":12,"description":"Then the quantity fields service","duration":344,"startTime":"2025-04-12T18:58:49.591666900-05:00[America/Bogota]","result":"SUCCESS","precondition":false,"level":1,"children":[{"number":13,"description":"Validation quantity fields service response","duration":341,"startTime":"2025-04-12T18:58:49.593172500-05:00[America/Bogota]","result":"SUCCESS","precondition":false,"level":2}]}]},{"number":14,"description":"And Validate schema request \"GetListJsonSchema\"","duration":244,"startTime":"2025-04-12T18:58:49.938232-05:00[America/Bogota]","result":"SUCCESS","precondition":false,"level":0,"children":[{"number":15,"description":"Then the schema is","duration":241,"startTime":"2025-04-12T18:58:49.940230600-05:00[America/Bogota]","result":"SUCCESS","precondition":false,"level":1,"children":[{"number":16,"description":"Validation Schema service response","duration":239,"startTime":"2025-04-12T18:58:49.942229400-05:00[America/Bogota]","result":"SUCCESS","precondition":false,"level":2}]}]},{"number":17,"description":"And Validate fields get list response api","duration":60,"startTime":"2025-04-12T18:58:50.183212300-05:00[America/Bogota]","result":"SUCCESS","precondition":false,"level":0,"children":[{"number":18,"description":"Then the fields get list service response are","duration":57,"startTime":"2025-04-12T18:58:50.185218500-05:00[America/Bogota]","result":"SUCCESS","precondition":false,"level":1,"children":[{"number":19,"description":"Validation fields get list service api response exists","duration":26,"startTime":"2025-04-12T18:58:50.186714-05:00[America/Bogota]","result":"SUCCESS","precondition":false,"level":2}]}]},{"number":20,"description":"And Validate list get response contain data expected\r\n| page | per_page | total | total_pages | support_url | support_text | id | email | first_name | last_name | avatar |\r\n| 1 | 6 | 12 | 2 | https://contentcaddy.io?utm_source\u003dreqres\u0026utm_medium\u003djson\u0026utm_campaign\u003dreferral | Tired of writing endless social media content? Let Content Caddy generate it for you. | 1 | george.bluth@reqres.in | George | Bluth | https://reqres.in/img/faces/1-image.jpg |","duration":115,"startTime":"2025-04-12T18:58:50.243369700-05:00[America/Bogota]","result":"SUCCESS","precondition":false,"level":0,"children":[{"number":21,"description":"Reqres load","duration":0,"startTime":"2025-04-12T18:58:50.245379900-05:00[America/Bogota]","result":"SUCCESS","precondition":false,"level":1},{"number":22,"description":"Then the fields and values list get response are","duration":109,"startTime":"2025-04-12T18:58:50.248379900-05:00[America/Bogota]","result":"SUCCESS","precondition":false,"level":1,"children":[{"number":23,"description":"Validation fields and values list get services response","duration":108,"startTime":"2025-04-12T18:58:50.249454400-05:00[America/Bogota]","result":"SUCCESS","precondition":false,"level":2}]}]}],"userStory":{"id":"information-list-get-users","storyName":"Information list get users","path":"get_list.feature","type":"feature"},"featureTag":{"name":"Information list get users","type":"feature","displayName":"Information list get users"},"title":"Send information list get users with response success","description":"","tags":[{"name":"Information list get users","type":"feature","displayName":"Information list get users"}],"startTime":"2025-04-12T18:58:46.523394900-05:00[America/Bogota]","duration":3837,"projectKey":"","isManualTestingUpToDate":false,"manual":false,"testSource":"Cucumber","actors":[{"name":"Reqres","can":["browse the web","call an API at https://reqres.in"]}],"result":"SUCCESS"}